<soap:Envelope xmlns:soap="http://www.w3.org/2003/05/soap-envelope" xmlns:tem="http://tempuri.org/">
   <soap:Header/>
   <soap:Body>
      <tem:Add>
         <tem:intA>14</tem:intA>
         <tem:intB>6</tem:intB>
      </tem:Add>
   </soap:Body>
</soap:Envelope>