[
  {
    "line": 1,
    "elements": [
      {
        "start_timestamp": "2019-08-19T12:25:42.340Z",
        "line": 46,
        "name": "Get Method",
        "description": "",
        "id": "testing-http-methods-using-cucumber-bdd;get-method",
        "type": "scenario",
        "keyword": "Scenario",
        "steps": [
          {
            "result": {
              "duration": 14151589,
              "status": "passed"
            },
            "line": 47,
            "name": "URL \u0027https://reqres.in/api/users?page\u003d2\u0027",
            "match": {
              "arguments": [
                {
                  "val": "\u0027https://reqres.in/api/users?page\u003d2\u0027",
                  "offset": 4
                }
              ],
              "location": "Stepdefinition.URL(String)"
            },
            "keyword": "Given "
          },
          {
            "result": {
              "duration": 12732350926,
              "status": "passed"
            },
            "line": 48,
            "name": "Method \u0027Get\u0027",
            "match": {
              "arguments": [
                {
                  "val": "\u0027Get\u0027",
                  "offset": 7
                }
              ],
              "location": "Stepdefinition.Method(String)"
            },
            "keyword": "When "
          },
          {
            "result": {
              "duration": 5879560,
              "status": "passed"
            },
            "line": 49,
            "name": "Statuscode \u0027200\u0027",
            "match": {
              "arguments": [
                {
                  "val": "\u0027200\u0027",
                  "offset": 11
                }
              ],
              "location": "Stepdefinition.statuscode(String)"
            },
            "keyword": "Then "
          },
          {
            "result": {
              "duration": 3253006366,
              "status": "passed"
            },
            "line": 50,
            "name": "Match JSONPath \u0027total\u0027 contains \u002712\u0027",
            "match": {
              "arguments": [
                {
                  "val": "\u0027total\u0027",
                  "offset": 15
                },
                {
                  "val": "\u002712\u0027",
                  "offset": 32
                }
              ],
              "location": "Stepdefinition.match_JSONPath_contains(String,String)"
            },
            "keyword": "And "
          },
          {
            "result": {
              "duration": 304371567,
              "status": "passed"
            },
            "line": 51,
            "name": "print response",
            "match": {
              "location": "Stepdefinition.print_response()"
            },
            "keyword": "And "
          }
        ]
      }
    ],
    "name": "Testing HTTP methods using cucumber BDD",
    "description": "",
    "id": "testing-http-methods-using-cucumber-bdd",
    "keyword": "Feature",
    "uri": "file:src/main/resources/RESTAssured_CucumBDD/CucumberScript.feature",
    "tags": []
  }
]